"","main_output.time_vector","main_output.prob_c","main_output.prob_d","censor_c","risk_c","events_c","censor_d","risk_d","events_d","total_risk","total_events","expected_c","expected_d"
"1",0,100,100,0,126,0,0,146,0,272,0,0,0
"2",0.13,97.32,96.4,2.63873635365022,126,3.3768,2.6984803107817,146,5.256,272,8.6328,3.99901764705883,4.63378235294118
"3",0.3,92.61,94.04,1.87676935073097,119.98446364635,5.80689296932086,2.1957022283489,138.045519689218,3.37953761894767,258.029983335568,9.18643058826852,4.27170878635593,4.91472180191259
"4",0.49,92.61,90.86,2.61206549198692,112.300801326298,0,2.57306014169604,132.470279841922,4.47953519669622,244.77108116822,4.47953519669622,2.05520762402734,2.42432757266887
"5",0.71,87.26,84,2.73078460878483,109.688735834311,6.33662387121869,2.51994929441983,125.41768450353,9.4691318038104,235.106420337841,15.8057556750291,7.37416424616834,8.43159142886075
"6",0.97,83.75,77.84,3.25969063039047,100.621327354308,4.04745426327779,2.7538371482988,113.428603405299,8.31809758305528,214.049930759607,12.3655518463331,5.81284112464352,6.55271072168954
"7",1.26,79.22,75.55,2.51664274221878,93.3141824606393,5.04732234682622,2.18761971266521,102.356668673945,3.01126376237585,195.670851134584,8.05858610920207,3.84308838137386,4.21549772782821
"8",1.85,78.58,69.46,3.97537611242824,85.7502173715943,0.692756111055544,3.0834214136284,97.1577851989041,7.83177911133457,182.908002570498,8.52453522239011,3.99643940144183,4.52809582094828
"9",2,78.58,68.7,4.18252143107987,81.0820851481105,0,3.24087059162007,86.2425846739412,0.943627474117406,167.324669822052,0.943627474117406,0.457262418541468,0.486365055575938
"10",2.63,77.56,67.11,4.33545827656163,76.8995637170306,0.998187261279853,3.34334152622938,82.0580866082037,1.89916095643441,158.957650325234,2.89734821771427,1.40166147035185,1.49568674736242
"11",3.36,73.41,59,5.48109715779951,71.5659181791891,3.8292748896807,4.27444889527357,76.8155841255399,9.2828846261083,148.381502304729,13.112159515789,6.32412881985981,6.78803069592919
"12",3.63,73.41,56.3,6.25288409915159,62.2555461317089,0,5.11624807730763,63.258250604158,2.89486909544453,125.513796735867,2.89486909544453,1.43587128430165,1.45899781114288
"13",3.96,70.91,56.3,5.65971195085248,56.0026620325573,1.90718778206502,4.38938279517941,55.2471334314059,0,111.249795463963,1.90718778206502,0.960070014926076,0.947117767138947
"14",4.27,69.92,55.06,5.77233653578993,48.4357622996398,0.676229088656648,4.50196244914702,50.8577506362265,1.1201351827517,99.2935129358663,1.79636427140834,0.876273487369702,0.920090784038641
"15",4.68,69.92,55.06,5.77233653578993,41.9871966751932,0,4.50196242968027,45.2356530043278,0,87.222849679521,0,0,0
"16",5.37,69.92,53.53,6.20760684848708,36.2148601394033,0,5.04546032968342,40.7336905746475,1.1319024079043,76.9485507140508,1.1319024079043,0.532715522427935,0.599186885476364
"17",6.74,66.9,51.34,6.13003398067964,30.0072532909162,1.29607987612367,4.90757504070483,34.5563278370598,1.41375598660865,64.563581127976,2.70983586273232,1.25945199583396,1.45038386689836
"18",7.41,66.9,51.34,6.13003398067963,22.5811394341129,0,4.90757505041313,28.2349968097463,0,50.8161362438592,0,0,0
"19",8.02,66.9,46.17,7.48623083409698,16.4511054534333,0,7.31354589822526,23.3274217593332,2.3490995421845,39.7785272127665,2.3490995421845,0.971511189501415,1.37758835268309
"20",9.8,66.9,39.7,8.96487461933631,8.96487461933631,0,11.7498726415694,13.6647763189234,1.91490367735401,22.6296509382597,1.91490367735401,0.758600803097711,1.1563028742563
